output/test10/testbench.vcd
$date
	Wed Apr 22 15:19:15 2026
$end
$version
	Icarus Verilog
$end
$timescale
	1s
$end
$scope module fsm_tb $end
$var wire 1 ! ackB $end
$var wire 1 " ackA $end
$var reg 1 # clk $end
$var reg 1 $ reqA $end
$var reg 1 % reqB $end
$var reg 1 & reset $end
$var integer 32 ' errors [31:0] $end
$scope module uut $end
$var wire 1 " ackA $end
$var wire 1 ! ackB $end
$var wire 1 # clk $end
$var wire 1 ( d_0 $end
$var wire 1 ) d_1 $end
$var wire 1 * i_0 $end
$var wire 1 + i_1 $end
$var wire 1 $ reqA $end
$var wire 1 % reqB $end
$var wire 1 & reset $end
$var wire 1 , s_1 $end
$var wire 1 - s_0 $end
$var reg 2 . state [1:0] $end
$upscope $end
$upscope $end
$enddefinitions $end
$comment Show the parameter values. $end
$dumpall
$end
#0
$dumpvars
b0 .
0-
0,
0+
0*
0)
0(
b0 '
1&
0%
0$
0#
0"
0!
$end
#5
1#
#10
0#
#15
1#
#20
0#
0&
#25
1#
#30
0#
#35
1#
#40
0(
0!
1)
1"
1+
1%
1*
1$
0#
#45
1,
b10 .
1#
#50
0+
0%
0#
#55
1#
#60
0#
#65
1#
#70
1+
1%
0#
#75
1#
#80
0#
#85
1#
#90
1(
1!
0)
0"
0*
0$
0#
#95
0,
1-
b1 .
1#
#100
0(
0!
0+
0%
0#
#105
0-
b0 .
1#
#110
0#
#115
1#
#120
0#
#125
1#
#130
1)
1"
1*
1$
0#
#135
1,
b10 .
1#
#140
0)
0"
0*
0$
0#
#145
0,
b0 .
1#
#150
1(
1!
1+
1%
0#
#155
1-
b1 .
1#
#160
0(
0!
0+
0%
0#
#165
0-
b0 .
1#
#170
0(
0!
1)
1"
1+
1%
1*
1$
0#
#175
1,
b10 .
1#
#180
0)
0"
0+
0%
0*
0$
0#
#185
0,
b0 .
1#
#190
0(
0!
1)
1"
1+
1%
1*
1$
0#
#195
1,
b10 .
1#
#200
1(
1!
0)
0"
0*
0$
0#
#205
0,
1-
b1 .
1#
#210
1*
1$
0#
#215
1#
#220
1)
1"
0(
0!
0+
0%
0#
#225
1,
0-
b10 .
1#
#230
0)
0"
0*
0$
0#
#235
0,
b0 .
1#
#240
0#
#245
1#
#250
0(
0!
1)
1"
1+
1%
1*
1$
0#
#255
1,
b10 .
1#
#260
1(
1!
0)
0"
0*
0$
0#
#265
0,
1-
b1 .
1#
#270
1*
1$
0#
#275
1#
#280
1)
1"
0(
0!
0+
0%
0#
#285
1,
0-
b10 .
1#
#290
1+
1%
0#
#295
1#
#300
1(
1!
0)
0"
0*
0$
0#
#305
0,
1-
b1 .
1#
#310
1*
1$
0#
#315
1#
#320
1)
1"
0(
0!
0+
0%
0#
#325
1,
0-
b10 .
1#
#330
0#
#335
1#
#340
0#
#345
1#
#350
1+
1%
0#
#355
1#
#360
1(
1!
0)
0"
0*
0$
0#
#365
0,
1-
b1 .
1#
#370
0(
0!
0+
0%
0#
#375
0-
b0 .
1#
#380
0#
#385
1#
#390
1(
1!
1+
1%
0#
#395
1-
b1 .
1#
#400
1)
1"
0(
0!
0+
0%
1*
1$
0#
#405
1,
0-
b10 .
1#
#410
0)
0"
0*
0$
0#
#415
0,
b0 .
1#
#420
0#
#425
1#
#430
1)
1"
1*
1$
0#
#435
1,
b10 .
1#
#440
0#
#445
1#
#450
0)
0"
0*
0$
0#
#455
0,
b0 .
1#
#460
0(
0!
1)
1"
1+
1%
1*
1$
0#
#465
1,
b10 .
1#
#470
0#
#475
1#
#480
0)
0"
0+
0%
0*
0$
0#
#485
0,
b0 .
1#
#490
1)
1"
1*
1$
0#
#495
1,
b10 .
1#
#500
1(
1!
0)
0"
1+
1%
0*
0$
0#
#505
0,
1-
b1 .
1#
#510
1*
1$
0#
