output/test2/testbench.vcd
$date
	Wed Apr 22 15:19:15 2026
$end
$version
	Icarus Verilog
$end
$timescale
	1s
$end
$scope module fsm_tb $end
$var wire 1 ! z $end
$var reg 1 " clk $end
$var reg 1 # reset $end
$var reg 1 $ x $end
$var integer 32 % errors [31:0] $end
$scope module uut $end
$var wire 1 " clk $end
$var wire 1 & d_0 $end
$var wire 1 ' d_1 $end
$var wire 1 ( i_0 $end
$var wire 1 # reset $end
$var wire 1 $ x $end
$var wire 1 ! z $end
$var wire 1 ) s_1 $end
$var wire 1 * s_0 $end
$var reg 2 + state [1:0] $end
$upscope $end
$upscope $end
$enddefinitions $end
$comment Show the parameter values. $end
$dumpall
$end
#0
$dumpvars
b0 +
0*
0)
0(
0'
0&
b0 %
0$
1#
0"
0!
$end
#5
1"
#10
0"
#15
1"
#20
1'
1(
1$
0"
0#
#25
1)
b10 +
1"
#30
0"
#35
1"
#40
1&
0'
0(
0$
0"
#45
0&
0)
1*
b1 +
1"
#50
1&
1!
1'
1(
1$
0"
#55
0&
0!
1)
b11 +
1"
#60
0"
#65
0*
b10 +
1"
#70
1&
0'
0(
0$
0"
#75
0&
0)
1*
b1 +
1"
#80
0"
#85
0*
b0 +
1"
#90
1'
1(
1$
0"
#95
1)
b10 +
1"
#100
1&
0'
0(
0$
0"
#105
0&
0)
1*
b1 +
1"
#110
1&
1!
1'
1(
1$
0"
#115
0&
0!
1)
b11 +
1"
#120
0"
#125
0*
b10 +
1"
#130
1&
0'
0(
0$
0"
#135
0&
0)
1*
b1 +
1"
#140
0"
#145
0*
b0 +
1"
#150
0"
#155
1"
#160
0"
#165
1"
#170
1'
1(
1$
0"
#175
1)
b10 +
1"
#180
1&
0'
0(
0$
0"
#185
0&
0)
1*
b1 +
1"
#190
1&
1!
1'
1(
1$
0"
#195
0&
0!
1)
b11 +
1"
#200
1&
0'
0(
0$
0"
#205
0&
0)
b1 +
1"
#210
1&
1!
1'
1(
1$
0"
#215
0&
0!
1)
b11 +
1"
#220
0"
#225
0*
b10 +
1"
#230
0"
#235
1"
#240
0"
#245
1"
#250
1&
0'
0(
0$
0"
#255
0&
0)
1*
b1 +
1"
#260
0"
#265
0*
b0 +
1"
#270
1'
1(
1$
0"
#275
1)
b10 +
1"
#280
0"
#285
1"
#290
0"
#295
1"
#300
0"
#305
1"
#310
0"
#315
1"
#320
0"
#325
1"
#330
1&
0'
0(
0$
0"
#335
0&
0)
1*
b1 +
1"
#340
1&
1!
1'
1(
1$
0"
#345
0&
0!
1)
b11 +
1"
#350
1&
0'
0(
0$
0"
#355
0&
0)
b1 +
1"
#360
1&
1!
1'
1(
1$
0"
#365
0&
0!
1)
b11 +
1"
#370
1&
0'
0(
0$
0"
#375
0&
0)
b1 +
1"
#380
1&
1!
1'
1(
1$
0"
#385
0&
0!
1)
b11 +
1"
#390
0"
#395
0*
b10 +
1"
#400
1&
0'
0(
0$
0"
#405
0&
0)
1*
b1 +
1"
#410
0"
#415
0*
b0 +
1"
#420
0"
#425
1"
#430
1'
1(
1$
0"
#435
1)
b10 +
1"
#440
0"
#445
1"
#450
1&
0'
0(
0$
0"
#455
0&
0)
1*
b1 +
1"
#460
1&
1!
1'
1(
1$
0"
#465
0&
0!
1)
b11 +
1"
#470
0"
#475
0*
b10 +
1"
#480
1&
0'
0(
0$
0"
#485
0&
0)
1*
b1 +
1"
#490
1&
1!
1'
1(
1$
0"
#495
0&
0!
1)
b11 +
1"
#500
1&
0'
0(
0$
0"
#505
0&
0)
b1 +
1"
#510
1&
1!
1'
1(
1$
0"
#515
0&
0!
1)
b11 +
1"
