output/test5/testbench.vcd
$date
	Wed Apr 22 15:19:15 2026
$end
$version
	Icarus Verilog
$end
$timescale
	1s
$end
$scope module fsm_tb $end
$var wire 1 ! y $end
$var wire 1 " r $end
$var wire 1 # g $end
$var reg 1 $ clk $end
$var reg 1 % reset $end
$var reg 1 & timer_done $end
$var integer 32 ' errors [31:0] $end
$scope module uut $end
$var wire 1 $ clk $end
$var wire 1 ( d_0 $end
$var wire 1 ) d_1 $end
$var wire 1 # g $end
$var wire 1 * i_0 $end
$var wire 1 " r $end
$var wire 1 % reset $end
$var wire 1 & timer_done $end
$var wire 1 ! y $end
$var wire 1 + s_1 $end
$var wire 1 , s_0 $end
$var reg 2 - state [1:0] $end
$upscope $end
$upscope $end
$enddefinitions $end
$comment Show the parameter values. $end
$dumpall
$end
#0
$dumpvars
b0 -
0,
0+
0*
0)
0(
b0 '
0&
1%
0$
0#
1"
0!
$end
#5
1$
#10
0$
#15
1$
#20
0$
0%
#25
1$
#30
0$
#35
1$
#40
0"
1)
1#
1*
1&
0$
#45
0#
0)
1!
1(
1+
b10 -
1$
#50
1)
1#
0(
0!
0*
0&
0$
#55
1$
#60
0$
#65
1$
#70
0)
0#
1(
1!
1*
1&
0$
#75
1"
0!
0(
0+
1,
b1 -
1$
#80
1(
1!
0"
0*
0&
0$
#85
1$
#90
0(
0!
1"
1*
1&
0$
#95
1#
1)
0"
0,
b0 -
1$
#100
1"
0)
0#
0*
0&
0$
#105
1$
#110
0"
1)
1#
1*
1&
0$
#115
0#
0)
1!
1(
1+
b10 -
1$
#120
1)
1#
0(
0!
0*
0&
0$
#125
1$
#130
0$
#135
1$
#140
0$
#145
1$
#150
0$
#155
1$
#160
0)
0#
1(
1!
1*
1&
0$
#165
1"
0!
0(
0+
1,
b1 -
1$
#170
0$
#175
1#
1)
0"
0,
b0 -
1$
#180
1"
0)
0#
0*
0&
0$
#185
1$
#190
0"
1)
1#
1*
1&
0$
#195
0#
0)
1!
1(
1+
b10 -
1$
#200
0$
#205
1"
0!
0(
0+
1,
b1 -
1$
#210
1(
1!
0"
0*
0&
0$
#215
1$
#220
0$
#225
1$
#230
0$
#235
1$
#240
0$
#245
1$
#250
0(
0!
1"
1*
1&
0$
#255
1#
1)
0"
0,
b0 -
1$
#260
0$
#265
0#
0)
1!
1(
1+
b10 -
1$
#270
0$
#275
1"
0!
0(
0+
1,
b1 -
1$
#280
0$
#285
1#
1)
0"
0,
b0 -
1$
#290
0$
#295
0#
0)
1!
1(
1+
b10 -
1$
#300
1)
1#
0(
0!
0*
0&
0$
#305
1$
#310
0$
#315
1$
#320
0$
#325
1$
#330
0$
#335
1$
#340
0$
#345
1$
#350
0$
#355
1$
#360
0$
#365
1$
#370
0$
#375
1$
#380
0)
0#
1(
1!
1*
1&
0$
#385
1"
0!
0(
0+
1,
b1 -
1$
#390
0$
#395
1#
1)
0"
0,
b0 -
1$
#400
1"
0)
0#
0*
0&
0$
#405
1$
#410
0$
#415
1$
#420
0$
#425
1$
#430
0$
#435
1$
#440
0"
1)
1#
1*
1&
0$
#445
0#
0)
1!
1(
1+
b10 -
1$
#450
0$
#455
1"
0!
0(
0+
1,
b1 -
1$
#460
1(
1!
0"
0*
0&
0$
#465
1$
#470
0$
#475
1$
#480
0(
0!
1"
1*
1&
0$
#485
1#
1)
0"
0,
b0 -
1$
#490
1"
0)
0#
0*
0&
0$
