output/test1/testbench.vcd
$date
	Wed Apr 22 15:19:15 2026
$end
$version
	Icarus Verilog
$end
$timescale
	1s
$end
$scope module fsm_tb $end
$var wire 1 ! out_det $end
$var reg 1 " clk $end
$var reg 1 # in_bit $end
$var reg 1 $ reset $end
$var integer 32 % errors [31:0] $end
$scope module uut $end
$var wire 1 " clk $end
$var wire 1 & d_0 $end
$var wire 1 ' d_1 $end
$var wire 1 ( i_0 $end
$var wire 1 # in_bit $end
$var wire 1 ! out_det $end
$var wire 1 $ reset $end
$var wire 1 ) s_1 $end
$var wire 1 * s_0 $end
$var reg 2 + state [1:0] $end
$upscope $end
$upscope $end
$enddefinitions $end
$comment Show the parameter values. $end
$dumpall
$end
#0
$dumpvars
b0 +
0*
0)
0(
1'
0&
b0 %
1$
0#
0"
0!
$end
#5
1"
#10
0"
#15
1"
#20
0"
0$
#25
1)
b10 +
1"
#30
0"
#35
1"
#40
0'
1&
1!
1(
1#
0"
#45
0!
0&
0)
1*
b1 +
1"
#50
1'
0(
0#
0"
#55
1)
0*
b10 +
1"
#60
0'
1&
1!
1(
1#
0"
#65
0!
0&
0)
1*
b1 +
1"
#70
0"
#75
0*
b0 +
1"
#80
0"
#85
1"
#90
1'
0(
0#
0"
#95
1)
b10 +
1"
#100
0'
1&
1!
1(
1#
0"
#105
0!
0&
0)
1*
b1 +
1"
#110
1'
0(
0#
0"
#115
1)
0*
b10 +
1"
#120
0'
1&
1!
1(
1#
0"
#125
0!
0&
0)
1*
b1 +
1"
#130
1'
0(
0#
0"
#135
1)
0*
b10 +
1"
#140
0"
#145
1"
#150
0'
1&
1!
1(
1#
0"
#155
0!
0&
0)
1*
b1 +
1"
#160
1'
0(
0#
0"
#165
1)
0*
b10 +
1"
#170
0"
#175
1"
#180
0"
#185
1"
#190
0'
1&
1!
1(
1#
0"
#195
0!
0&
0)
1*
b1 +
1"
#200
1'
0(
0#
0"
#205
1)
0*
b10 +
1"
#210
0'
1&
1!
1(
1#
0"
#215
0!
0&
0)
1*
b1 +
1"
#220
0"
#225
0*
b0 +
1"
#230
1'
0(
0#
0"
#235
1)
b10 +
1"
#240
0'
1&
1!
1(
1#
0"
#245
0!
0&
0)
1*
b1 +
1"
#250
1'
0(
0#
0"
#255
1)
0*
b10 +
1"
#260
0"
#265
1"
#270
0'
1&
1!
1(
1#
0"
#275
0!
0&
0)
1*
b1 +
1"
#280
0"
#285
0*
b0 +
1"
#290
0"
#295
1"
#300
1'
0(
0#
0"
#305
1)
b10 +
1"
#310
0"
#315
1"
#320
0'
1&
1!
1(
1#
0"
#325
0!
0&
0)
1*
b1 +
1"
#330
1'
0(
0#
0"
#335
1)
0*
b10 +
1"
#340
0"
#345
1"
#350
0'
1&
1!
1(
1#
0"
#355
0!
0&
0)
1*
b1 +
1"
#360
1'
0(
0#
0"
#365
1)
0*
b10 +
1"
#370
0'
1&
1!
1(
1#
0"
#375
0!
0&
0)
1*
b1 +
1"
#380
0"
#385
0*
b0 +
1"
#390
0"
#395
1"
#400
0"
#405
1"
#410
1'
0(
0#
0"
#415
1)
b10 +
1"
#420
0'
1&
1!
1(
1#
0"
#425
0!
0&
0)
1*
b1 +
1"
#430
1'
0(
0#
0"
#435
1)
0*
b10 +
1"
#440
0"
#445
1"
#450
0"
#455
1"
#460
0'
1&
1!
1(
1#
0"
#465
0!
0&
0)
1*
b1 +
1"
#470
1'
0(
0#
0"
#475
1)
0*
b10 +
1"
#480
0'
1&
1!
1(
1#
0"
#485
0!
0&
0)
1*
b1 +
1"
#490
1'
0(
0#
0"
#495
1)
0*
b10 +
1"
#500
0'
1&
1!
1(
1#
0"
#505
0!
0&
0)
1*
b1 +
1"
#510
1'
0(
0#
0"
#515
1)
0*
b10 +
1"
