output/test6/testbench.vcd
$date
	Wed Apr 22 15:19:16 2026
$end
$version
	Icarus Verilog
$end
$timescale
	1s
$end
$scope module fsm_tb $end
$var wire 1 ! out $end
$var reg 1 " clk $end
$var reg 1 # reset $end
$var reg 1 $ toggle $end
$var integer 32 % errors [31:0] $end
$scope module uut $end
$var wire 1 " clk $end
$var wire 1 & d_0 $end
$var wire 1 ' i_0 $end
$var wire 1 ! out $end
$var wire 1 # reset $end
$var wire 1 $ toggle $end
$var wire 1 ( s_0 $end
$var reg 1 ( state $end
$upscope $end
$upscope $end
$enddefinitions $end
$comment Show the parameter values. $end
$dumpall
$end
#0
$dumpvars
0(
0'
0&
b0 %
0$
1#
0"
0!
$end
#5
1"
#10
0"
#15
1"
#20
1&
1!
1'
1$
0"
0#
#25
0!
0&
1(
1"
#30
1&
1!
0'
0$
0"
#35
1"
#40
0"
#45
1"
#50
0&
0!
1'
1$
0"
#55
1!
1&
0(
1"
#60
0&
0!
0'
0$
0"
#65
1"
#70
0"
#75
1"
#80
1&
1!
1'
1$
0"
#85
0!
0&
1(
1"
#90
0"
#95
1!
1&
0(
1"
#100
0&
0!
0'
0$
0"
#105
1"
#110
1&
1!
1'
1$
0"
#115
0!
0&
1(
1"
#120
0"
#125
1!
1&
0(
1"
#130
0&
0!
0'
0$
0"
#135
1"
#140
1&
1!
1'
1$
0"
#145
0!
0&
1(
1"
#150
1&
1!
0'
0$
0"
#155
1"
#160
0&
0!
1'
1$
0"
#165
1!
1&
0(
1"
#170
0&
0!
0'
0$
0"
#175
1"
#180
1&
1!
1'
1$
0"
#185
0!
0&
1(
1"
#190
0"
#195
1!
1&
0(
1"
#200
0"
#205
0!
0&
1(
1"
#210
0"
#215
1!
1&
0(
1"
#220
0"
#225
0!
0&
1(
1"
#230
0"
#235
1!
1&
0(
1"
#240
0"
#245
0!
0&
1(
1"
#250
1&
1!
0'
0$
0"
#255
1"
#260
0&
0!
1'
1$
0"
#265
1!
1&
0(
1"
#270
0&
0!
0'
0$
0"
#275
1"
#280
0"
#285
1"
#290
0"
#295
1"
#300
0"
#305
1"
#310
1&
1!
1'
1$
0"
#315
0!
0&
1(
1"
#320
1&
1!
0'
0$
0"
#325
1"
#330
0&
0!
1'
1$
0"
#335
1!
1&
0(
1"
#340
0&
0!
0'
0$
0"
#345
1"
#350
0"
#355
1"
#360
1&
1!
1'
1$
0"
#365
0!
0&
1(
1"
#370
0"
#375
1!
1&
0(
1"
#380
0"
#385
0!
0&
1(
1"
#390
0"
#395
1!
1&
0(
1"
#400
0"
#405
0!
0&
1(
1"
#410
1&
1!
0'
0$
0"
#415
1"
#420
0&
0!
1'
1$
0"
#425
1!
1&
0(
1"
#430
0"
#435
0!
0&
1(
1"
#440
0"
#445
1!
1&
0(
1"
#450
0&
0!
0'
0$
0"
#455
1"
#460
1&
1!
1'
1$
0"
#465
0!
0&
1(
1"
#470
1&
1!
0'
0$
0"
#475
1"
#480
0&
0!
1'
1$
0"
#485
1!
1&
0(
1"
#490
0&
0!
0'
0$
0"
