output/test3/testbench.vcd
$date
	Wed Apr 22 15:19:15 2026
$end
$version
	Icarus Verilog
$end
$timescale
	1s
$end
$scope module fsm_tb $end
$var wire 1 ! is_even $end
$var reg 1 " clk $end
$var reg 1 # reset $end
$var reg 1 $ x $end
$var integer 32 % errors [31:0] $end
$scope module uut $end
$var wire 1 " clk $end
$var wire 1 & d_0 $end
$var wire 1 ' i_0 $end
$var wire 1 ! is_even $end
$var wire 1 # reset $end
$var wire 1 $ x $end
$var wire 1 ( s_0 $end
$var reg 1 ( state $end
$upscope $end
$upscope $end
$enddefinitions $end
$comment Show the parameter values. $end
$dumpall
$end
#0
$dumpvars
0(
0'
0&
b0 %
0$
1#
0"
1!
$end
#5
1"
#10
0"
#15
1"
#20
0!
1&
1'
1$
0"
0#
#25
0&
1!
1(
1"
#30
0"
#35
1&
0!
0(
1"
#40
1!
0&
0'
0$
0"
#45
1"
#50
0!
1&
1'
1$
0"
#55
0&
1!
1(
1"
#60
0"
#65
1&
0!
0(
1"
#70
0"
#75
0&
1!
1(
1"
#80
1&
0!
0'
0$
0"
#85
1"
#90
0&
1!
1'
1$
0"
#95
1&
0!
0(
1"
#100
0"
#105
0&
1!
1(
1"
#110
0"
#115
1&
0!
0(
1"
#120
0"
#125
0&
1!
1(
1"
#130
1&
0!
0'
0$
0"
#135
1"
#140
0"
#145
1"
#150
0&
1!
1'
1$
0"
#155
1&
0!
0(
1"
#160
1!
0&
0'
0$
0"
#165
1"
#170
0!
1&
1'
1$
0"
#175
0&
1!
1(
1"
#180
1&
0!
0'
0$
0"
#185
1"
#190
0&
1!
1'
1$
0"
#195
1&
0!
0(
1"
#200
1!
0&
0'
0$
0"
#205
1"
#210
0"
#215
1"
#220
0"
#225
1"
#230
0!
1&
1'
1$
0"
#235
0&
1!
1(
1"
#240
0"
#245
1&
0!
0(
1"
#250
0"
#255
0&
1!
1(
1"
#260
0"
#265
1&
0!
0(
1"
#270
0"
#275
0&
1!
1(
1"
#280
0"
#285
1&
0!
0(
1"
#290
0"
#295
0&
1!
1(
1"
#300
1&
0!
0'
0$
0"
#305
1"
#310
0"
#315
1"
#320
0&
1!
1'
1$
0"
#325
1&
0!
0(
1"
#330
1!
0&
0'
0$
0"
#335
1"
#340
0!
1&
1'
1$
0"
#345
0&
1!
1(
1"
#350
1&
0!
0'
0$
0"
#355
1"
#360
0&
1!
1'
1$
0"
#365
1&
0!
0(
1"
#370
0"
#375
0&
1!
1(
1"
#380
0"
#385
1&
0!
0(
1"
#390
1!
0&
0'
0$
0"
#395
1"
#400
0"
#405
1"
#410
0"
#415
1"
#420
0"
#425
1"
#430
0"
#435
1"
#440
0"
#445
1"
#450
0"
#455
1"
#460
0!
1&
1'
1$
0"
#465
0&
1!
1(
1"
#470
0"
#475
1&
0!
0(
1"
#480
0"
#485
0&
1!
1(
1"
#490
0"
#495
1&
0!
0(
1"
#500
0"
#505
0&
1!
1(
1"
#510
0"
#515
1&
0!
0(
1"
