output/test8/testbench.vcd
$date
	Wed Apr 22 15:19:16 2026
$end
$version
	Icarus Verilog
$end
$timescale
	1s
$end
$scope module fsm_tb $end
$var wire 1 ! siren $end
$var reg 1 " clk $end
$var reg 1 # reset $end
$var reg 1 $ sensor $end
$var integer 32 % errors [31:0] $end
$scope module uut $end
$var wire 1 " clk $end
$var wire 1 & d_0 $end
$var wire 1 ' d_1 $end
$var wire 1 ( i_0 $end
$var wire 1 # reset $end
$var wire 1 $ sensor $end
$var wire 1 ! siren $end
$var wire 1 ) s_1 $end
$var wire 1 * s_0 $end
$var reg 2 + state [1:0] $end
$upscope $end
$upscope $end
$enddefinitions $end
$comment Show the parameter values. $end
$dumpall
$end
#0
$dumpvars
b0 +
0*
0)
0(
0'
0&
b0 %
0$
1#
0"
0!
$end
#5
1"
#10
0"
#15
1"
#20
0"
0#
#25
1"
#30
1'
1(
1$
0"
#35
0'
1!
1&
1)
b10 +
1"
#40
0"
#45
0)
1*
b1 +
1"
#50
0"
#55
1"
#60
0"
#65
1"
#70
1'
0&
0(
0$
0"
#75
0'
0!
1)
0*
b10 +
1"
#80
0"
#85
0)
b0 +
1"
#90
0"
#95
1"
#100
0"
#105
1"
#110
1'
1(
1$
0"
#115
0'
1!
1&
1)
b10 +
1"
#120
0&
0!
0(
0$
0"
#125
0)
b0 +
1"
#130
1'
1(
1$
0"
#135
0'
1!
1&
1)
b10 +
1"
#140
0&
0!
0(
0$
0"
#145
0)
b0 +
1"
#150
1'
1(
1$
0"
#155
0'
1!
1&
1)
b10 +
1"
#160
0&
0!
0(
0$
0"
#165
0)
b0 +
1"
#170
0"
#175
1"
#180
0"
#185
1"
#190
0"
#195
1"
#200
1'
1(
1$
0"
#205
0'
1!
1&
1)
b10 +
1"
#210
0"
#215
0)
1*
b1 +
1"
#220
0"
#225
1"
#230
1'
0&
0(
0$
0"
#235
0'
0!
1)
0*
b10 +
1"
#240
1&
1!
1(
1$
0"
#245
0)
1*
b1 +
1"
#250
0"
#255
1"
#260
1'
0&
0(
0$
0"
#265
0'
0!
1)
0*
b10 +
1"
#270
1&
1!
1(
1$
0"
#275
0)
1*
b1 +
1"
#280
1'
0&
0(
0$
0"
#285
0'
0!
1)
0*
b10 +
1"
#290
1&
1!
1(
1$
0"
#295
0)
1*
b1 +
1"
#300
0"
#305
1"
#310
1'
0&
0(
0$
0"
#315
0'
0!
1)
0*
b10 +
1"
#320
0"
#325
0)
b0 +
1"
#330
1'
1(
1$
0"
#335
0'
1!
1&
1)
b10 +
1"
#340
0"
#345
0)
1*
b1 +
1"
#350
0"
#355
1"
#360
0"
#365
1"
#370
1'
0&
0(
0$
0"
#375
0'
0!
1)
0*
b10 +
1"
#380
0"
#385
0)
b0 +
1"
#390
1'
1(
1$
0"
#395
0'
1!
1&
1)
b10 +
1"
#400
0"
#405
0)
1*
b1 +
1"
#410
0"
#415
1"
#420
1'
0&
0(
0$
0"
#425
0'
0!
1)
0*
b10 +
1"
#430
1&
1!
1(
1$
0"
#435
0)
1*
b1 +
1"
#440
1'
0&
0(
0$
0"
#445
0'
0!
1)
0*
b10 +
1"
#450
1&
1!
1(
1$
0"
#455
0)
1*
b1 +
1"
#460
1'
0&
0(
0$
0"
#465
0'
0!
1)
0*
b10 +
1"
#470
0"
#475
0)
b0 +
1"
#480
1'
1(
1$
0"
#485
0'
1!
1&
1)
b10 +
1"
#490
0&
0!
0(
0$
0"
#495
0)
b0 +
1"
#500
1'
1(
1$
0"
#505
0'
1!
1&
1)
b10 +
1"
#510
0&
0!
0(
0$
0"
#515
0)
b0 +
1"
