output/test7/testbench.vcd
$date
	Wed Apr 22 15:19:16 2026
$end
$version
	Icarus Verilog
$end
$timescale
	1s
$end
$scope module fsm_tb $end
$var wire 1 ! o1 $end
$var wire 1 " o0 $end
$var reg 1 # clk $end
$var reg 1 $ in0 $end
$var reg 1 % in1 $end
$var reg 1 & reset $end
$var integer 32 ' errors [31:0] $end
$scope module uut $end
$var wire 1 # clk $end
$var wire 1 ( d_0 $end
$var wire 1 ) d_1 $end
$var wire 1 * i_0 $end
$var wire 1 + i_1 $end
$var wire 1 $ in0 $end
$var wire 1 % in1 $end
$var wire 1 " o0 $end
$var wire 1 ! o1 $end
$var wire 1 & reset $end
$var wire 1 , s_1 $end
$var wire 1 - s_0 $end
$var reg 2 . state [1:0] $end
$upscope $end
$upscope $end
$enddefinitions $end
$comment Show the parameter values. $end
$dumpall
$end
#0
$dumpvars
b0 .
0-
0,
0+
0*
0)
0(
b0 '
1&
0%
0$
0#
0"
0!
$end
#5
1#
#10
0#
#15
1#
#20
1)
1"
1+
1$
1(
1!
1*
1%
0#
0&
#25
1,
1-
b11 .
1#
#30
0)
0"
0+
0$
0#
#35
0,
b1 .
1#
#40
0(
0!
0*
0%
0#
#45
0-
b0 .
1#
#50
1)
1"
1+
1$
0#
#55
1,
b10 .
1#
#60
0)
0"
0+
0$
0#
#65
0,
b0 .
1#
#70
1(
1!
1*
1%
0#
#75
1-
b1 .
1#
#80
0(
0!
0*
0%
0#
#85
0-
b0 .
1#
#90
0#
#95
1#
#100
1)
1"
1+
1$
1(
1!
1*
1%
0#
#105
1,
1-
b11 .
1#
#110
0)
0"
0+
0$
0(
0!
0*
0%
0#
#115
0,
0-
b0 .
1#
#120
1(
1!
1*
1%
0#
#125
1-
b1 .
1#
#130
0#
#135
1#
#140
1)
1"
1+
1$
0(
0!
0*
0%
0#
#145
1,
0-
b10 .
1#
#150
1(
1!
1*
1%
0#
#155
1-
b11 .
1#
#160
0(
0!
0*
0%
0#
#165
0-
b10 .
1#
#170
0#
#175
1#
#180
0)
0"
0+
0$
0#
#185
0,
b0 .
1#
#190
0#
#195
1#
#200
1(
1!
1*
1%
0#
#205
1-
b1 .
1#
#210
1)
1"
1+
1$
0(
0!
0*
0%
0#
#215
1,
0-
b10 .
1#
#220
0)
0"
0+
0$
1(
1!
1*
1%
0#
#225
0,
1-
b1 .
1#
#230
1)
1"
1+
1$
0(
0!
0*
0%
0#
#235
1,
0-
b10 .
1#
#240
0)
0"
0+
0$
0#
#245
0,
b0 .
1#
#250
1)
1"
1+
1$
1(
1!
1*
1%
0#
#255
1,
1-
b11 .
1#
#260
0)
0"
0+
0$
0(
0!
0*
0%
0#
#265
0,
0-
b0 .
1#
#270
1(
1!
1*
1%
0#
#275
1-
b1 .
1#
#280
1)
1"
1+
1$
0#
#285
1,
b11 .
1#
#290
0)
0"
0+
0$
0#
#295
0,
b1 .
1#
#300
1)
1"
1+
1$
0#
#305
1,
b11 .
1#
#310
0)
0"
0+
0$
0#
#315
0,
b1 .
1#
#320
1)
1"
1+
1$
0#
#325
1,
b11 .
1#
#330
0#
#335
1#
#340
0(
0!
0*
0%
0#
#345
0-
b10 .
1#
#350
0)
0"
0+
0$
1(
1!
1*
1%
0#
#355
0,
1-
b1 .
1#
#360
0#
#365
1#
#370
1)
1"
1+
1$
0(
0!
0*
0%
0#
#375
1,
0-
b10 .
1#
#380
1(
1!
1*
1%
0#
#385
1-
b11 .
1#
#390
0)
0"
0+
0$
0(
0!
0*
0%
0#
#395
0,
0-
b0 .
1#
#400
1(
1!
1*
1%
0#
#405
1-
b1 .
1#
#410
1)
1"
1+
1$
0#
#415
1,
b11 .
1#
#420
0)
0"
0+
0$
0#
#425
0,
b1 .
1#
#430
1)
1"
1+
1$
0#
#435
1,
b11 .
1#
#440
0)
0"
0+
0$
0#
#445
0,
b1 .
1#
#450
1)
1"
1+
1$
0(
0!
0*
0%
0#
#455
1,
0-
b10 .
1#
#460
0)
0"
0+
0$
1(
1!
1*
1%
0#
#465
0,
1-
b1 .
1#
#470
1)
1"
1+
1$
0#
#475
1,
b11 .
1#
#480
0#
#485
1#
#490
0)
0"
0+
0$
0#
#495
0,
b1 .
1#
#500
0(
0!
0*
0%
0#
#505
0-
b0 .
1#
#510
1(
1!
1*
1%
0#
#515
1-
b1 .
1#
